…
## Reading and Writing Data: Exercises

Make a tibble of letters, their order in the alphabet, and then a
pasting of the two columns together.

``` r
tibble(let = letters, 
       num = 1:26, 
       paste(let, num, sep=""))
```

    ## # A tibble: 26 x 3
    ##    let     num `paste(let, num, sep = "")`
    ##    <chr> <int> <chr>                      
    ##  1 a         1 a1                         
    ##  2 b         2 b2                         
    ##  3 c         3 c3                         
    ##  4 d         4 d4                         
    ##  5 e         5 e5                         
    ##  6 f         6 f6                         
    ##  7 g         7 g7                         
    ##  8 h         8 h8                         
    ##  9 i         9 i9                         
    ## 10 j        10 j10                        
    ## # ... with 16 more rows
…
``` r
read_delim(file.path("iris.data"), delim = "$")
```

    ## Parsed with column specification:
    ## cols(
    ##   Sepal.Length = col_double(),
    ##   Sepal.Width = col_double(),
    ##   Petal.Length = col_double(),
    ##   Petal.Width = col_double(),
    ##   Species = col_character()
    ## )

    ## # A tibble: 150 x 5
    ##    Sepal.Length Sepal.Width Petal.Length Petal.Width Species
    ##           <dbl>       <dbl>        <dbl>       <dbl> <chr>  
    ##  1         5.10        3.50         1.40       0.200 setosa 
    ##  2         4.90        3.00         1.40       0.200 setosa 
    ##  3         4.70        3.20         1.30       0.200 setosa 
    ##  4         4.60        3.10         1.50       0.200 setosa 
    ##  5         5.00        3.60         1.40       0.200 setosa 
    ##  6         5.40        3.90         1.70       0.400 setosa 
    ##  7         4.60        3.40         1.40       0.300 setosa 
    ##  8         5.00        3.40         1.50       0.200 setosa 
    ##  9         4.40        2.90         1.40       0.200 setosa 
    ## 10         4.90        3.10         1.50       0.100 setosa 
    ## # ... with 140 more rows
…
